SYMBOL	WEIGHT	HUFFMAN CODE
P	16	0000
Q	17	0001
R	18	0010
I	9	00110
D	4	001110
E	5	001111
S	19	0100
T	20	0101
U	21	0110
J	10	01110
K	11	01111
V	22	1000
W	23	1001
F	6	101000
C	3	1010010
A	1	10100110
B	2	10100111
L	12	10101
X	24	1011
Y	25	1100
Z	26	1101
M	13	11100
N	14	11101
G	7	111100
H	8	111101
O	15	11111
Symbol count: 552
Entropy: 4.447380034318692
Average = 5.52bits/symbol
Percentage Difference = %24.118019089988245


SYMBOL	WEIGHT	HUFFMAN CODE
MM	169	000000000
QJ	170	000000001
TQ	340	00000001
QT	340	00000010
JQ	170	000000110
IS	171	000000111
RS	342	00000100
SR	342	00000101
SI	171	000001100
EQ	85	0000011010
UA	21	000001101100
KB	22	000001101101
DK	44	00000110111
WO	345	00000111
OW	345	00001000
NY	350	00001001
YN	350	00001010
YG	175	000010110
GY	175	000010111
VP	352	00001100
KP	176	000011010
VH	176	000011011
PV	352	00001110
HV	176	000011110
PK	176	000011111
HK	88	0001000000
DV	88	0001000001
KD	44	00010000100
VB	44	00010000101
KH	88	0001000011
UQ	357	00010001
QU	357	00010010
VD	88	0001001100
CO	45	00010011010
VA	22	000100110110
KA	11	0001001101110
FB	12	0001001101111
OL	180	000100111
XO	360	00010100
OF	90	0001010100
IJ	90	0001010101
FO	90	0001010110
JI	90	0001010111
TR	360	00010110
OX	360	00010111
LO	180	000110000
RE	90	0001100010
IE	45	00011000110
OC	45	00011000111
RT	360	00011001
RJ	180	000110100
TI	180	000110101
IT	180	000110110
JR	180	000110111
SS	361	00011100
ER	90	0001110100
EI	45	00011101010
WB	46	00011101011
MN	182	000111011
NZ	364	00011110
GZ	182	000111110
GM	91	0001111110
MG	91	0001111111
ZN	364	00100000
NM	182	001000010
ZG	182	001000011
WP	368	00100010
WH	184	001000110
HW	184	001000111
PW	368	00100100
DW	92	0010010100
WD	92	0010010101
QK	187	001001011
VQ	374	00100110
QV	374	00100111
OY	375	00101000
YO	375	00101001
KQ	187	001010100
UI	189	001010101
UR	378	00101011
RU	378	00101100
IU	189	001011010
WA	23	001011011000
XA	24	001011011001
XB	48	00101101101
SE	95	0010110111
TS	380	00101110
JS	190	001011110
SJ	190	001011111
ST	380	00110000
ES	95	0011000100
HL	96	0011000101
HX	192	001100011
XP	384	00110010
PX	384	00110011
DX	96	0011010000
LH	96	0011010001
XH	192	001101001
CP	48	00110101000
HF	48	00110101001
FH	48	00110101010
FD	24	001101010110
DC	12	0011010101110
LA	12	0011010101111
XD	96	0011010110
DL	48	00110101110
LD	48	00110101111
PL	192	001101100
LP	192	001101101
FP	96	0011011100
PF	96	0011011101
PC	48	00110111100
DF	24	001101111010
LB	24	001101111011
HC	24	001101111100
YA	25	001101111101
GG	49	00110111111
OZ	390	00111000
OM	195	001110010
MO	195	001110011
ZO	390	00111010
WQ	391	00111011
QW	391	00111100
NN	196	001111010
NG	98	0011110110
GN	98	0011110111
RV	396	00111110
IV	198	001111110
RK	198	001111111
VI	198	010000000
KR	198	010000001
VR	396	01000001
IK	99	0100001000
KI	99	0100001001
HY	200	010000101
US	399	01000011
SU	399	01000100
TT	400	01000101
YB	50	01000110000
JE	50	01000110001
JJ	100	0100011001
TJ	200	010001101
DY	100	0100011100
TE	100	0100011101
ET	100	0100011110
YD	100	0100011111
YP	400	01001000
PY	400	01001001
YH	200	010010100
JT	200	010010101
EJ	50	01001011000
CQ	51	01001011001
EE	25	010010110100
ZA	26	010010110101
QC	51	01001011011
FQ	102	0100101110
QF	102	0100101111
QL	204	010011000
LQ	204	010011001
QX	408	01001101
XQ	408	01001110
WI	207	010011110
IW	207	010011111
RW	414	01010000
WR	414	01010001
HM	104	0101001000
FA	6	01010010010000
GA	7	01010010010001
MA	13	0101001001001
MB	26	010100100101
DM	52	01010010011
MP	208	010100101
PM	208	010100110
DZ	104	0101001110
MD	52	01010011110
ZB	52	01010011111
ZP	416	01010100
PZ	416	01010101
HZ	208	010101100
ZH	208	010101101
ZD	104	0101011100
MH	104	0101011101
KS	209	010101111
VS	418	01011000
SV	418	01011001
SK	209	010110100
UJ	210	010110101
TU	420	01011011
NO	210	010111000
JU	210	010111001
UT	420	01011101
UE	105	0101111000
EU	105	0101111001
ON	210	010111101
YQ	425	01011111
QY	425	01100000
OG	105	0110000100
GO	105	0110000101
RF	108	0110000110
LI	108	0110000111
RL	216	011000100
XI	216	011000101
XR	432	01100011
RX	432	01100100
IX	216	011001010
FI	54	01100101100
CR	54	01100101101
IF	54	01100101110
RC	54	01100101111
IL	108	0110011000
FR	108	0110011001
LR	216	011001101
SW	437	01100111
WS	437	01101000
TV	440	01101001
TK	220	011010100
IC	27	011010101000
NB	28	011010101001
EK	55	01101010101
JK	110	0110101011
VT	440	01101011
VJ	220	011011000
JV	220	011011001
KJ	110	0110110100
VE	110	0110110101
KT	220	011011011
UU	441	01101110
MQ	221	011011110
EV	110	0110111110
KE	55	01101111110
ND	56	01101111111
QZ	442	01110000
ZQ	442	01110001
QM	221	011100100
PG	112	0111001010
GP	112	0111001011
DN	56	01110011000
HG	56	01110011001
NH	112	0111001101
NP	224	011100111
HN	112	0111010000
NA	14	0111010001000
GB	14	0111010001001
DG	28	011101000101
GH	56	01110100011
PN	224	011101001
RY	450	01110101
YR	450	01110110
YI	225	011101110
OO	225	011101111
IY	225	011110000
CS	57	01111000100
SC	57	01111000101
FS	114	0111100011
SL	228	011110010
LS	228	011110011
SX	456	01111010
XS	456	01111011
SF	114	0111110000
WE	115	0111110001
WJ	230	011111001
WT	460	01111101
TW	460	01111110
JW	230	011111110
KU	231	011111111
VU	462	10000000
UV	462	10000001
UK	231	100000100
EW	115	1000001010
MI	117	1000001011
RM	234	100000110
MR	234	100000111
ZR	468	10000100
IZ	234	100001010
ZI	234	100001011
RZ	468	10000110
IM	117	1000011100
GD	28	100001110100
FE	30	100001110101
OA	15	1000011101100
EC	15	1000011101101
JC	30	100001110111
QN	238	100001111
YS	475	10001000
SY	475	10001001
NQ	238	100010100
QG	119	1000101010
GQ	119	1000101011
HO	120	1000101100
XE	120	1000101101
OP	240	100010111
FT	120	1000110000
JL	120	1000110001
JX	240	100011001
LT	240	100011010
XJ	240	100011011
TL	240	100011100
OH	120	1000111010
DO	60	10001110110
LE	60	10001110111
XT	480	10001111
TF	120	1001000000
LJ	120	1001000001
JF	60	10010000100
EF	30	100100001010
OB	30	100100001011
EX	120	1001000011
PO	240	100100010
EL	60	10010001100
TC	60	10010001101
FJ	60	10010001110
OD	60	10010001111
TX	480	10010010
UW	483	10010011
WU	483	10010100
VV	484	10010101
VK	242	100101100
KV	242	100101101
KK	121	1001011100
CT	60	10010111010
CU	63	10010111011
MS	247	100101111
SZ	494	10011000
ZS	494	10011001
SM	247	100110100
YJ	250	100110101
JY	250	100110110
EY	125	1001101110
YE	125	1001101111
TY	500	10011100
YT	500	10011101
XU	504	10011110
IG	63	10011111000
GI	63	10011111001
IN	126	1001111101
FU	126	1001111110
NI	126	1001111111
UX	504	10100000
RG	126	1010000100
GR	126	1010000101
NR	252	101000011
RN	252	101000100
LU	252	101000101
UL	252	101000110
KW	253	101000111
WK	253	101001000
UF	126	1010010010
UC	63	10100100110
PA	16	1010010011100
HB	16	1010010011101
PB	32	101001001111
VW	506	10100101
WV	506	10100110
OQ	255	101001110
QO	255	101001111
PP	256	101010000
DP	64	10101000100
HH	64	10101000101
HP	128	1010100011
PH	128	1010100100
DH	32	101010010100
DD	16	1010100101010
DB	8	10101001010110
HA	8	10101001010111
PD	64	10101001011
TM	260	101010011
MJ	130	1010101000
EZ	130	1010101001
MT	260	101010101
TZ	520	10101011
ZT	520	10101100
HD	32	101011010000
KC	33	101011010001
EM	65	10101101001
ZE	130	1010110101
ZJ	260	101011011
JZ	260	101011100
JM	130	1010111010
ME	65	10101110110
CV	66	10101110111
UY	525	10101111
YU	525	10110000
VX	528	10110001
XK	264	101100100
VL	264	101100101
XV	528	10110011
KX	264	101101000
LV	264	101101001
KL	132	1011010100
LK	132	1011010101
FV	132	1011010110
FK	66	10110101110
KF	66	10110101111
WW	529	10110110
VF	132	1011011100
SG	133	1011011101
SN	266	101101111
NS	266	101110000
GS	133	1011100010
VC	66	10111000110
QD	68	10111000111
OI	135	1011100100
IO	135	1011100101
OR	270	101110011
RO	270	101110100
PQ	272	101110101
QH	136	1011101100
HQ	136	1011101101
QP	272	101110111
UZ	546	10111100
UM	273	101111010
MU	273	101111011
ZU	546	10111110
KY	275	101111110
YK	275	101111111
YV	550	11000000
VY	550	11000001
DQ	68	11000010000
CW	69	11000010001
QB	34	110000100100
QA	17	1100001001010
FC	18	1100001001011
WC	69	11000010011
FW	138	1100001010
WF	138	1100001011
XW	552	11000011
WX	552	11000100
LW	276	110001010
WL	276	110001011
NE	70	11000110000
EG	35	110001100010
GE	35	110001100011
TG	140	1100011001
NT	280	110001101
GT	140	1100011100
NJ	140	1100011101
TN	280	110001111
JG	70	11001000000
GJ	70	11001000001
JN	140	1100100001
EN	70	11001000100
XC	72	11001000101
MK	143	1100100011
OS	285	110010010
SO	285	110010011
ZV	572	11001010
ZK	286	110010110
MV	286	110010111
KZ	286	110011000
VM	286	110011001
VZ	572	11001101
WY	575	11001110
KM	143	1100111100
DR	72	11001111010
HI	72	11001111011
LX	288	110011111
YW	575	11010000
XX	576	11010001
RP	288	110100100
XL	288	110100101
PI	144	1101001100
FX	144	1101001101
XF	144	1101001110
IP	144	1101001111
PR	288	110101000
RD	72	11010100100
LF	72	11010100101
FF	36	110101001100
ID	36	110101001101
IB	18	1101010011100
IA	9	11010100111010
DA	4	110101001110110
EA	5	110101001110111
DI	36	110101001111
RH	144	1101010100
IH	72	11010101010
RB	36	110101010110
LC	36	110101010111
HR	144	1101010110
LL	144	1101010111
QQ	289	110101100
FL	72	11010110100
CX	72	11010110101
GU	147	1101011011
UN	294	110101110
NU	294	110101111
UG	147	1101100000
OE	75	11011000010
CY	75	11011000011
WM	299	110110001
ZW	598	11011001
WZ	598	11011010
MW	299	110110110
TO	300	110110111
YL	300	110111000
JO	150	1101110010
YC	75	11011100110
RA	18	1101110011100
SA	19	1101110011101
SB	38	110111001111
OT	300	110111010
OJ	150	1101110110
FY	150	1101110111
YX	600	11011110
XY	600	11011111
LY	300	111000000
YF	150	1110000010
EO	75	11100000110
DS	76	11100000111
SP	304	111000010
PS	304	111000011
HS	152	1110001000
SH	152	1110001001
SD	76	11100010100
KG	77	11100010101
IQ	153	1110001011
QR	306	111000110
RQ	306	111000111
QI	153	1110010000
NK	154	1110010001
NV	308	111001001
KN	154	1110010100
GV	154	1110010101
VN	308	111001011
VG	154	1110011000
GK	77	11100110010
ZC	78	11100110011
ZF	156	1110011010
ML	156	1110011011
ZX	624	11100111
XM	312	111010000
MX	312	111010001
LZ	312	111010010
ZL	312	111010011
XZ	624	11101010
FM	78	11101011000
CZ	78	11101011001
FZ	156	1110101101
LM	156	1110101110
MF	78	11101011110
MC	39	111010111110
DE	20	1110101111110
JA	10	11101011111110
EB	10	11101011111111
YY	625	11101100
UO	315	111011010
OU	315	111011011
JH	80	11101110000
DJ	40	111011100010
EH	40	111011100011
DT	80	11101110010
TB	40	111011100110
HE	40	111011100111
JP	160	1110111010
JB	20	1110111011000
ED	20	1110111011001
JD	40	111011101101
PE	80	11101110111
TD	80	11101111000
EP	80	11101111001
PJ	160	1110111101
TH	160	1110111110
HT	160	1110111111
PT	320	111100000
TP	320	111100001
HJ	80	11110001000
II	81	11110001001
WG	161	1111000101
NW	322	111100011
WN	322	111100100
SQ	323	111100101
QS	323	111100110
GW	161	1111001110
IR	162	1111001111
RR	324	111101000
MY	325	111101001
YZ	650	11110101
ZY	650	11110110
YM	325	111101110
RI	162	1111011110
OK	165	1111011111
VO	330	111110000
OV	330	111110001
KO	165	1111100100
TA	20	1111100101000
GC	21	1111100101001
NC	42	111110010101
DU	84	11111001011
UP	336	111110011
XG	168	1111101000
NL	168	1111101001
HU	168	1111101010
GX	168	1111101011
NX	336	111110110
XN	336	111110111
PU	336	111111000
LN	168	1111110010
GL	84	11111100110
LG	84	11111100111
UH	168	1111110100
FN	84	11111101010
UB	42	111111010110
CN	42	111111010111
NF	84	11111101100
FG	42	111111011010
GF	42	111111011011
UD	84	11111101110
QE	85	11111101111
MZ	338	111111100
ZM	338	111111101
ZZ	676	11111111
Symbol count: 1083
Entropy: 4.447380034318692
Average = 10.83bits/symbol
Percentage Difference = %143.51415701894436


